{
  "type": "service_account",
  "project_id": "the-loom-centrica",
  "private_key_id": "53d8e5553ca4cdec34f41f3c2030a068cd141949",
  "private_key": "-----BEGIN PRIVATE KEY-----\nMIIEvQIBADANBgkqhkiG9w0BAQEFAASCBKcwggSjAgEAAoIBAQDB5aP/k0JnMe2L\nhLdy2un6IXrQsMPjlB7w8xpe3IQzVPYaK9uNseN/6MC8n8ntOFXvbz4YpnMCJyMO\nWmPjJls95LZUHdj3qvjDijDRTtaAFih5ZYyuhZrgw3x796j0LoX7m499eLXlTQ0W\nP3odHJjE9AnFpXjmU1GbtoQC4TkW1yXXEUPbMGSQbm1/ZnIBrAbk4xktD8naCF1G\niLId3siasBhtVhk6323ZsiISsdgTdxQOf2nx1lfRMa0uf6B65fbzcTPGbp+lhGfi\nXqC080YAs2UFwM09o/Yp23AMMuNKaIEAKlhU537YINBkWHnDUsyXnhCUbyBkU3Jb\nuAinqJA9AgMBAAECggEALwW3e3QlfuxDTPoPGSoQ4ym6ZKDxqJ/TzyBNrWKyJta8\nZkVrldXls6/pCfWAXWizooDqYMUBEC0YmdL+9Wfoab6tHwIsC4gpkxZQ13nUmDSH\ndUVU1EAvesG9zzyU+z7LHGUx675Z8nV4roQPY777J4x9UDLcepMLMAWXxzECjNCN\nVxyA/C9DvhEY3GBkDpE2tkf5j3cSubEhWyYuKr+oNoSJNXaVRd3xkUEqI4Hwb/ES\nBr9/B3S4Gm2jtkGOzej/UlzjQiwBVxsps3D+WjxRUU3ql1k7airAA6zVoquNZ/3A\n6V4Rnk/tqJvGOHcYNlU/fYCGW9Sydgil1mpOMIH9MQKBgQDiqNfUndJRWWqTKlwM\nqXb8R1mPfzeHUgy7TgJs+ORoJcELH5KFsrTRbONIPJ2q2VT3DX1NCjD06f0DvKXi\n1qmP/XxEZFmsMmvyA3+bnJlKPxaIFmqG1JRjj8BE3/U/U4/p3s5mejv05PzXxhwP\nf8pc0LB1gVryRJ+IwVlXX95E6QKBgQDa/xjfS2iw3fHarc2sOZtwRrE0UeLztt2E\n/UqpBsOEJ9Ul3gYF1mlsE3cyesH5cb5IA1wLBtFLLMLD+ZkJgc1KeCfz5nZ4zrac\nukGfn8EJWUx1HqFxc1OXK2lniNaPpwABmueN4v0bNDsYh9ul7RQAHBpUZf1kTgZ/\nC3LCqcJsNQKBgQCa9wMxO4Ha2n5yBYkPoyFVlFaYNEs7uo431Tr1VCmdRwq31ysv\nO6JCeObfsYm+kH51toRPksMr/3pb/rOP5mHhr1Yx0EY64/JHcbriImvvhjiabHEC\no/6cH2E99bzQQgpnxExrZfDuG0z/HVR8CEvLr2alv/31G5PTRRYXFdV6WQKBgGK4\nUhb+oF/yfP8OEEQN5/MR+vnR3BPvICa+I7TUVrixWBVs45woDnfownff/KccziEa\nWpih5yETOW0si/9MIyXpymDZSBinXoyCLejuFA/J0HyPZUmGKm1f5XEFr2ssZgVT\nNgSxCVYFEoq5W5uNptFx2bCoFTTtM2J736y+5+TtAoGAGnFcg7sV8zprbyvnsuS4\nDQ00ltMk4xXAUn8OmO6nKWwTYlvqtVktWG65zaJu73HO3XkV9keTxQMt3tSxwsQO\ncxA+B24sfc4np1zcqOOdYZFlBO141h6g/0ilCIy4rebxLr5ZNVcUrCLSoCYVv2qj\njRM8cDbsSjCdOB/h8IzQE9M=\n-----END PRIVATE KEY-----\n",
  "client_email": "gapi-client@the-loom-centrica.iam.gserviceaccount.com",
  "client_id": "116492279219076846096",
  "auth_uri": "https://accounts.google.com/o/oauth2/auth",
  "token_uri": "https://oauth2.googleapis.com/token",
  "auth_provider_x509_cert_url": "https://www.googleapis.com/oauth2/v1/certs",
  "client_x509_cert_url": "https://www.googleapis.com/robot/v1/metadata/x509/gapi-client%40the-loom-centrica.iam.gserviceaccount.com"
}
